{
    "date_of_expity": {
        "day": 30,
        "month": 1,
        "year": 2038
    },
    "card_number": "2314124124",
    "full_name": "NGUYEN VAN A",
    "date_of_birth": {
        "day": 12,
        "month": 3,
        "year": 2003
    },
    "sex": "Nam",
    "nationality": "Việt Nam",
    "place_of_origin": "xxxxx, xxxxx, xxxxx",
    "place_of_residence": "Ấp 1 xxxx, xxxx, xxxx",
    "personal_identification": null,
    "issue_date": null,
    "code_string": {
        "full_code": "xxxx",
        "line_1": "xxx",
        "line_2": "xxx",
        "line_3": "xxx"
    }
}